<?xml version="1.0" encoding="iso-8859-1"?>
<!-- Generator: Adobe Illustrator 19.0.0, SVG Export Plug-In . SVG Version: 6.00 Build 0)  -->
<svg version="1.1" id="Capa_1" xmlns="http://www.w3.org/2000/svg" xmlns:xlink="http://www.w3.org/1999/xlink" x="0px" y="0px"
	 viewBox="0 0 512 512" style="enable-background:new 0 0 512 512;" xml:space="preserve">
<path style="fill:#FF9400;" d="M411.899,400.967H99.103l-71.7-63.734C9.988,321.755,0,299.512,0,276.211V261.24h511.002v14.971
	c0,23.301-9.988,45.544-27.403,61.024L411.899,400.967z"/>
<rect x="280.452" y="111.033" style="fill:#FFDC40;" width="29.942" height="119.766"/>
<rect x="120.764" y="111.033" style="fill:#FFEA84;" width="29.942" height="119.766"/>
<rect x="360.296" y="111.033" style="fill:#FFDC40;" width="29.942" height="119.766"/>
<rect x="200.608" y="111.033" style="fill:#FFEA84;" width="29.942" height="119.766"/>
<path style="fill:#FF6849;" d="M255.501,261.24v139.727h157.396l71.7-63.733C502.012,321.755,512,299.512,512,276.211V261.24
	H255.501z"/>
<g>
</g>
<g>
</g>
<g>
</g>
<g>
</g>
<g>
</g>
<g>
</g>
<g>
</g>
<g>
</g>
<g>
</g>
<g>
</g>
<g>
</g>
<g>
</g>
<g>
</g>
<g>
</g>
<g>
</g>
</svg>
